<svg xmlns="http://www.w3.org/2000/svg" width="9.09" height="17" viewBox="0 0 9.09 17">
  <path id="mob.svg" d="M1340.22,17.067h7.07V29.8h-7.07V17.067h0Zm-1,1.06V30.865a2.222,2.222,0,0,0,2.02,2.124h5.04a2.23,2.23,0,0,0,2.02-2.124V18.127a2.23,2.23,0,0,0-2.02-2.121h-5.04a2.221,2.221,0,0,0-2.02,2.121h0Zm4.03,13.269a0.523,0.523,0,0,1,.51-0.531,0.532,0.532,0,0,1,0,1.062,0.523,0.523,0,0,1-.51-0.531h0Z" transform="translate(-1339.22 -16)"/>
</svg>
